###############################################################################
jmf@deb11tp:~/foo$ py x.py
Traceback (most recent call last):
  File "/home/jmf/foo/x.py", line 8, in <module>
    import cherrypy
ModuleNotFoundError: No module named 'cherrypy'

###############################################################################
jmf@deb11tp:~/foo$ python3 -m pip install -r requirements.txt
/usr/bin/python3: No module named pip

apt install python3-pip

###############################################################################
flask
poetry

###############################################################################
The script cherryd is installed in '/home/jmf/.local/bin' which is not on PATH.

###############################################################################
pytest -s

###############################################################################
docker-compose up --build
bash /media/sf_shared/login_registry_redhat_io
