10920  ffplay -an -i rtmp://192.168.1.80/rtmp/progr1in
10921  ffplay -an -i rtmp://192.168.1.80:19351/rtmp/progr1in
10922  ffplay -an -i rtmp://192.168.1.80:19351/rtmp/progr1out
10923  sx
10924  sd
10925  ffmpeg -re -f lavfi -i testsrc -c:v libx264 -b:v 1600k -preset ultrafast -b 900k -c:a libfdk_aac -b:a 128k -s 1920x1080 -x264opts keyint=50 -g 25 -pix_fmt yuv420p -f flv rtmp://127.0.0.1:1234/x1/v2
10926  ffmpeg -re -f lavfi -i rgbtestsrc -c:v libx264 -b:v 1600k -preset ultrafast -b 900k -c:a libfdk_aac -b:a 128k -s 1920x1080 -x264opts keyint=50 -g 25 -pix_fmt yuv420p -f flv rtmp://127.0.0.1:1234/x1/v2
10927  ffmpeg -re -f lavfi -i testsrc -c:v libx264 -b:v 1600k -preset ultrafast -b 900k -c:a libfdk_aac -b:a 128k -s 1920x1080 -x264opts keyint=50 -g 25 -pix_fmt yuv420p -f flv rtmp://127.0.0.1:1234/x1/v2
10928  ffmpeg -re -f lavfi -i mptestsrc=t=dc_luma -c:v libx264 -b:v 1600k -preset ultrafast -b 900k -c:a libfdk_aac -b:a 128k -s 1920x1080 -x264opts keyint=50 -g 25 -pix_fmt yuv420p -f flv rtmp://127.0.0.1:1234/x1/v2
10929  ffmpeg -re -f lavfi -i mptestsrc=t=ring1 -c:v libx264 -b:v 1600k -preset ultrafast -b 900k -c:a libfdk_aac -b:a 128k -s 1920x1080 -x264opts keyint=50 -g 25 -pix_fmt yuv420p -f flv rtmp://127.0.0.1:1234/x1/v2
10930  ffmpeg -re -f lavfi -i mptestsrc=t=all -c:v libx264 -b:v 1600k -preset ultrafast -b 900k -c:a libfdk_aac -b:a 128k -s 1920x1080 -x264opts keyint=50 -g 25 -pix_fmt yuv420p -f flv rtmp://127.0.0.1:1234/x1/v2
10931  history 
10932  ffplay -f lavfi life=s=300x200:mold=10:r=60:ratio=0.1:death_color=#C83232:life_color=#00ff00,scale=1200:800:flags=16
10933  ffmpeg -re -f lavfi -i nullsrc -c:v libx264 -b:v 1600k -preset ultrafast -b 900k -c:a libfdk_aac -b:a 128k -s 1920x1080 -x264opts keyint=50 -g 25 -pix_fmt yuv420p -f flv rtmp://127.0.0.1:1234/x1/v2
10934  ffmpeg -re -f lavfi -i smptehdbars -c:v libx264 -b:v 1600k -preset ultrafast -b 900k -c:a libfdk_aac -b:a 128k -s 1920x1080 -x264opts keyint=50 -g 25 -pix_fmt yuv420p -f flv rtmp://127.0.0.1:1234/x1/v2
10935  ffmpeg -re -f lavfi -i yuvtestsrc -c:v libx264 -b:v 1600k -preset ultrafast -b 900k -c:a libfdk_aac -b:a 128k -s 1920x1080 -x264opts keyint=50 -g 25 -pix_fmt yuv420p -f flv rtmp://127.0.0.1:1234/x1/v2
10936  echo "Video Sources"
10937  history 
10938  history | tail -n 15
10939  history | tail -n 20 > Dropbox/share/ffmpeg_Sources.txt



https://trac.ffmpeg.org/wiki/FancyFilteringExamples

10945  history 
10946  #ffmpeg -f avfoundation -i "1" -vcodec libx264 -r 10 -tune zerolatency -b:v 500k -bufsize 300k -f rtp rtp://localhost:1234
10947  ffmpeg -f avfoundation -i "1" -vcodec libx264 -r 10 -tune zerolatency -b:v 500k -bufsize 300k -f flv rtmp://127.0.0.1:1234/x1/y2
10948  tt
10949  fplay -f lavfi -i mandelbrot -vf "format=gbrp,split=4[a][b][c][d],[d]histogram=display_mode=0:level_height=244[dd],[a]waveform=m=1:d=0:r=0:c=7[aa],[b]waveform=m=0:d=0:r=0:c=7[bb],[c][aa]vstack[V],[bb][dd]vstack[V2],[V][V2]hstack"
10950  ffplay -f lavfi -i mandelbrot -vf "format=gbrp,split=4[a][b][c][d],[d]histogram=display_mode=0:level_height=244[dd],[a]waveform=m=1:d=0:r=0:c=7[aa],[b]waveform=m=0:d=0:r=0:c=7[bb],[c][aa]vstack[V],[bb][dd]vstack[V2],[V][V2]hstack"
10951  ffplay -f lavfi -i mandelbrot -vf "format=gbrp,split=4[a][b][c][d],[d]histogram=display_mode=0:level_height=244[dd],[a]waveform=m=1:d=0:r=0:c=7[aa],[b]waveform=m=0:d=0:r=0:c=7[bb]"
10952  ffplay -f lavfi -i mandelbrot -vf "format=gbrp,split=4[a][b][c][d],[d]histogram=display_mode=0:level_height=244[dd],[a]waveform=m=1:d=0:r=0:c=7[aa]"
10953  fplay -f lavfi -i mandelbrot -vf "format=gbrp,split=4[a][b][c][d],[d]histogram=display_mode=0:level_height=244[dd],[a]waveform=m=1:d=0:r=0:c=7[aa],[b]waveform=m=0:d=0:r=0:c=7[bb],[c][aa]vstack[V],[bb][dd]vstack[V2],[V][V2]hstack"
10954  history | tail -n 10 >> Dropbox/share/ffmpeg_Sources.txt
10967  ffmpeg -re -f lavfi -i testsrc -c:v libx264 -b:v 1600k -preset ultrafast -b 900k -c:a libfdk_aac -b:a 128k -s 1920x1080 -x264opts keyint=50 -g 25 -pix_fmt yuv420p -f flv rtmp://dev3-videobite.westeurope.cloudapp.azure.com:19351/rtmp/progr3
10968  #ffmpeg -re -f lavfi -i testsrc -c:v libx264 -b:v 1600k -preset ultrafast -b 900k -c:a libfdk_aac -b:a 128k -s 1920x1080 -x264opts keyint=50 -g 25 -pix_fmt yuv420p -f flv rtmp://dev3-videobite.westeurope.cloudapp.azure.com:19351/rtmp/progr3
10969  history | tail -n 3 >> Dropbox/share/ffmpeg_Sources.txt
